<?xml version="1.0" encoding="UTF-8"?>
<!DOCTYPE svg PUBLIC "-//W3C//DTD SVG 1.1//EN" "http://www.w3.org/Graphics/SVG/1.1/DTD/svg11.dtd">
<!-- Creator: CorelDRAW SE -->
<?xml-stylesheet href="rv-step3.css" type="text/css"?>
<svg xmlns="http://www.w3.org/2000/svg" xml:space="preserve" width="155px" height="65px" version="1.1" style="shape-rendering:geometricPrecision; text-rendering:geometricPrecision; image-rendering:optimizeQuality; fill-rule:evenodd; clip-rule:evenodd"
viewBox="0 0 194.113 81.855"
 xmlns:xlink="http://www.w3.org/1999/xlink">
 <g id="Warstwa_x0020_1">
  <metadata id="CorelCorpID_0Corel-Layer"/>
  <path class="step3-fil0" d="M186.021 41.175l0 40.68 -66.34 0 0 -40.68 33.421 -38.803 32.919 38.803zm-33.17 32.017l-2.541 -2.313c-9.026,-8.184 -14.983,-13.582 -14.983,-20.206 0,-5.398 4.241,-9.639 9.638,-9.639 3.049,0 5.976,1.42 7.886,3.663 1.91,-2.242 4.837,-3.663 7.886,-3.663 5.397,0 9.638,4.241 9.638,9.639 0,6.624 -5.959,12.022 -14.983,20.223l-2.541 2.296z"/>
  <polygon class="step3-fil1" points="153.961,5.592 184.002,5.592 184.002,35.634 153.961,35.634 "/>
  <g id="_640683720">
   <polygon class="step3-fil2 step3-str0" points="180.449,34.525 169.562,22.655 169.562,8.631 181.014,8.631 "/>
   <path class="step3-fil1 step3-str1" d="M192.251 46.649c-13.154,-14.638 -28.082,-30.338 -41.236,-44.976"/>
   <line class="step3-fil1 step3-str1" x1="113.328" y1="46.649" x2="154.123" y2= "1.782" />
  </g>
  <rect class="step3-fil3" y="34.381" width="66.341" height="35.048" rx="11.266" ry="11.266"/>
  <path class="step3-fil4" d="M11.213 50.062l0.615 -3.579c2.844,-1.508 5.039,-3.264 6.585,-5.268l2.014 0 -3.555 20.613 -3.311 0 2.447 -14.2c-0.672,0.53 -1.455,1.021 -2.357,1.47 -0.897,0.448 -1.713,0.768 -2.438,0.964z"/>
  <path id="1" class="step3-fil4" d="M23.008 55.163c0,-2.644 0.42,-5.173 1.265,-7.587 0.844,-2.415 1.847,-4.133 3.006,-5.144 0.873,-0.773 1.866,-1.16 2.963,-1.16 1.356,0 2.472,0.597 3.355,1.794 0.883,1.198 1.321,2.949 1.321,5.259 0,2.643 -0.415,5.167 -1.25,7.577 -0.835,2.41 -1.832,4.123 -2.991,5.139 -0.869,0.754 -1.862,1.131 -2.978,1.131 -1.336,0 -2.453,-0.591 -3.345,-1.775 -0.897,-1.179 -1.346,-2.925 -1.346,-5.234zm3.236 0.811c0,1.102 0.147,1.875 0.439,2.319 0.295,0.448 0.672,0.672 1.126,0.672 0.577,0 1.107,-0.319 1.579,-0.963 0.625,-0.869 1.169,-2.52 1.632,-4.968 0.463,-2.443 0.692,-4.332 0.692,-5.664 0,-1.026 -0.148,-1.76 -0.449,-2.214 -0.296,-0.453 -0.673,-0.677 -1.131,-0.677 -0.548,0 -1.049,0.314 -1.498,0.949 -0.706,0.998 -1.307,2.825 -1.804,5.492 -0.391,2.086 -0.586,3.77 -0.586,5.054z"/>
  <path id="2" class="step3-fil4" d="M36.064 55.163c0,-2.644 0.42,-5.173 1.264,-7.587 0.845,-2.415 1.847,-4.133 3.007,-5.144 0.872,-0.773 1.865,-1.16 2.963,-1.16 1.355,0 2.471,0.597 3.354,1.794 0.883,1.198 1.322,2.949 1.322,5.259 0,2.643 -0.415,5.167 -1.25,7.577 -0.835,2.41 -1.833,4.123 -2.992,5.139 -0.869,0.754 -1.861,1.131 -2.978,1.131 -1.336,0 -2.452,-0.591 -3.344,-1.775 -0.897,-1.179 -1.346,-2.925 -1.346,-5.234zm3.235 0.811c0,1.102 0.148,1.875 0.439,2.319 0.296,0.448 0.673,0.672 1.126,0.672 0.578,0 1.107,-0.319 1.58,-0.963 0.625,-0.869 1.169,-2.52 1.631,-4.968 0.463,-2.443 0.692,-4.332 0.692,-5.664 0,-1.026 -0.148,-1.76 -0.449,-2.214 -0.295,-0.453 -0.672,-0.677 -1.13,-0.677 -0.549,0 -1.05,0.314 -1.498,0.949 -0.707,0.998 -1.308,2.825 -1.804,5.492 -0.392,2.086 -0.587,3.77 -0.587,5.054z"/>
  <line class="step3-fil1 step3-str2" x1="68.364" y1="60.577" x2="105.916" y2= "60.577" />
  <line class="step3-fil1 step3-str2" x1="68.994" y1="53.066" x2="94.021" y2= "53.066" />
  <line class="step3-fil1 step3-str2" x1="68.994" y1="44.304" x2="87.14" y2= "44.304" />
 </g>
</svg>
