<?xml version="1.0" encoding="UTF-8"?>
<!DOCTYPE svg PUBLIC "-//W3C//DTD SVG 1.1//EN" "http://www.w3.org/Graphics/SVG/1.1/DTD/svg11.dtd">
<!-- Creator: CorelDRAW SE -->
<?xml-stylesheet href="rv-step6.css" type="text/css"?>
<svg xmlns="http://www.w3.org/2000/svg" xml:space="preserve" width="182px" height="88px" version="1.1" style="shape-rendering:geometricPrecision; text-rendering:geometricPrecision; image-rendering:optimizeQuality; fill-rule:evenodd; clip-rule:evenodd"
viewBox="0 0 166.516 80.862"
 xmlns:xlink="http://www.w3.org/1999/xlink">
 <g id="Warstwa_x0020_1">
  <metadata id="CorelCorpID_0Corel-Layer"/>
  <path class="fil0" d="M160.606 43.019l0 29.71 -48.45 0 0 -29.71 24.408 -28.338 24.042 28.338zm-24.225 23.383l-1.856 -1.69c-6.591,-5.977 -10.942,-9.918 -10.942,-14.756 0,-3.942 3.097,-7.04 7.039,-7.04 2.227,0 4.364,1.037 5.759,2.675 1.395,-1.637 3.533,-2.675 5.759,-2.675 3.942,0 7.039,3.098 7.039,7.04 0,4.838 -4.351,8.779 -10.942,14.769l-1.856 1.677z"/>
  <polygon class="fil1" points="137.192,17.033 159.131,17.033 159.131,38.972 137.192,38.972 "/>
  <g id="_455931504">
   <polygon class="fil2 str0" points="156.537,38.163 148.585,29.494 148.585,19.252 156.949,19.252 "/>
   <path class="fil1 str1" d="M165.156 47.017c-9.607,-10.69 -20.509,-22.156 -30.116,-32.846"/>
   <line class="fil1 str1" x1="107.517" y1="47.017" x2="137.31" y2= "14.25" />
  </g>
  <g id="_455933544">
   <circle class="fil3" cx="78.779" cy="41.8" r="15.51"/>
   <circle class="fil3" cx="78.779" cy="41.8" r="15.51"/>
   <path class="fil4" d="M78.779 51.764l-1.365 -1.243c-4.849,-4.397 -8.05,-7.297 -8.05,-10.855 0,-2.9 2.279,-5.178 5.178,-5.178 1.639,0 3.211,0.762 4.237,1.967 1.026,-1.205 2.599,-1.967 4.236,-1.967 2.9,0 5.178,2.278 5.178,5.178 0,3.558 -3.201,6.458 -8.049,10.864l-1.365 1.234z"/>
   <path class="fil4" d="M78.779 51.764l-1.365 -1.243c-4.849,-4.397 -8.05,-7.296 -8.05,-10.855 0,-2.9 2.279,-5.178 5.178,-5.178 1.639,0 3.211,0.762 4.237,1.967 1.026,-1.205 2.599,-1.967 4.236,-1.967 2.9,0 5.178,2.278 5.178,5.178 0,3.559 -3.201,6.458 -8.049,10.864l-1.365 1.234z"/>
   <line class="fil1 str2" x1="59.328" y1="48.621" x2="32.806" y2= "48.621" />
   <line class="fil1 str2" x1="59.328" y1="48.621" x2="32.806" y2= "48.621" />
   <line class="fil1 str2" x1="58.884" y1="43.317" x2="41.207" y2= "43.317" />
   <line class="fil1 str2" x1="58.884" y1="43.317" x2="41.207" y2= "43.317" />
   <line class="fil1 str2" x1="58.884" y1="37.128" x2="46.067" y2= "37.128" />
   <line class="fil1 str2" x1="58.884" y1="37.128" x2="46.067" y2= "37.128" />
  </g>
  <g id="_456543392">
   <circle class="fil3" cx="45.351" cy="13.24" r="13.24"/>
   <circle class="fil3" cx="45.351" cy="13.24" r="13.24"/>
   <path class="fil4" d="M45.351 21.746l-1.165 -1.061c-4.14,-3.753 -6.872,-6.228 -6.872,-9.266 0,-2.476 1.945,-4.421 4.421,-4.421 1.398,0 2.74,0.651 3.616,1.68 0.876,-1.029 2.219,-1.68 3.617,-1.68 2.475,0 4.42,1.945 4.42,4.421 0,3.038 -2.733,5.513 -6.871,9.274l-1.166 1.053z"/>
   <path class="fil4" d="M45.351 21.746l-1.165 -1.061c-4.14,-3.753 -6.872,-6.228 -6.872,-9.266 0,-2.476 1.945,-4.421 4.421,-4.421 1.398,0 2.74,0.651 3.616,1.68 0.876,-1.029 2.219,-1.68 3.617,-1.68 2.475,0 4.42,1.945 4.42,4.421 0,3.038 -2.733,5.513 -6.871,9.274l-1.166 1.053z"/>
   <line class="fil1 str2" x1="28.747" y1="19.064" x2="6.105" y2= "19.064" />
   <line class="fil1 str2" x1="28.747" y1="19.064" x2="6.105" y2= "19.064" />
   <line class="fil1 str2" x1="28.367" y1="14.535" x2="13.277" y2= "14.535" />
   <line class="fil1 str2" x1="28.367" y1="14.535" x2="13.277" y2= "14.535" />
   <line class="fil1 str2" x1="28.367" y1="9.252" x2="17.426" y2= "9.252" />
   <line class="fil1 str2" x1="28.367" y1="9.252" x2="17.426" y2= "9.252" />
  </g>
  <g id="_456546176">
   <circle class="fil3" cx="39.246" cy="67.622" r="13.24"/>
   <circle class="fil3" cx="39.246" cy="67.622" r="13.24"/>
   <path class="fil4" d="M39.246 76.128l-1.165 -1.061c-4.14,-3.754 -6.872,-6.229 -6.872,-9.267 0,-2.476 1.945,-4.421 4.42,-4.421 1.399,0 2.741,0.651 3.617,1.68 0.876,-1.028 2.219,-1.68 3.617,-1.68 2.475,0 4.42,1.945 4.42,4.421 0,3.038 -2.733,5.513 -6.872,9.275l-1.165 1.053z"/>
   <path class="fil4" d="M39.246 76.128l-1.165 -1.061c-4.14,-3.754 -6.872,-6.229 -6.872,-9.267 0,-2.476 1.945,-4.421 4.42,-4.421 1.399,0 2.741,0.651 3.617,1.68 0.876,-1.028 2.219,-1.68 3.617,-1.68 2.475,0 4.42,1.945 4.42,4.421 0,3.038 -2.733,5.513 -6.872,9.275l-1.165 1.053z"/>
   <line class="fil1 str2" x1="22.642" y1="73.445" x2="0" y2= "73.445" />
   <line class="fil1 str2" x1="22.642" y1="73.445" x2="0" y2= "73.445" />
   <line class="fil1 str2" x1="22.262" y1="68.917" x2="7.172" y2= "68.917" />
   <line class="fil1 str2" x1="22.262" y1="68.917" x2="7.172" y2= "68.917" />
   <line class="fil1 str2" x1="22.262" y1="63.634" x2="11.321" y2= "63.634" />
   <line class="fil1 str2" x1="22.262" y1="63.634" x2="11.321" y2= "63.634" />
  </g>
 </g>
</svg>
